Width,GPULanguage,Algorithm,SumTotalTimeAcrossBlockIDs,SumTotalTimePerUnitArea
8,cuda,branching,1116876030.5,17451187.9765625
8,cuda,simple,1148052062.5,17938313.4765625
8,cuda,threads,1100802129.5,17200033.2734375
8,opencl,branching,885571520.5,13837055.0078125
8,opencl,simple,944489517,14757648.703125
8,opencl,threads,871899290.5,13623426.4140625
16,cuda,branching,1870201851,7305475.98046875
16,cuda,simple,1834498550.5,7166009.96289062
16,cuda,threads,1881835214.5,7350918.80664062
16,opencl,branching,1725850037,6741601.70703125
16,opencl,simple,1742727202.5,6807528.13476562
16,opencl,threads,1727997102.5,6749988.68164062
32,cuda,branching,2811970664,2746065.1015625
32,cuda,simple,2667603456.5,2605081.50048828
32,cuda,threads,2715797336,2652145.8359375
32,opencl,branching,2730711306,2666710.25976562
32,opencl,simple,2714884509.5,2651254.40380859
32,opencl,threads,2708145335.5,2644673.17919922
64,cuda,branching,2661335143.5,649740.025268555
64,cuda,simple,2818150922,688025.127441406
64,cuda,threads,2732876256.5,667206.11730957
64,opencl,branching,2749749259,671325.502685547
64,opencl,simple,2744459885.5,670034.151733398
64,opencl,threads,2849080195,695576.219482422
128,cuda,branching,3066380781,187157.030090332
128,cuda,simple,2975507211.5,181610.547576904
128,cuda,threads,2772852177,169241.465881348
128,opencl,branching,2763194390.5,168652.001373291
128,opencl,simple,2826266845.5,172501.638519287
128,opencl,threads,2759081083,168400.945007324
256,cuda,branching,3345014011.5,51040.8632125854
256,cuda,simple,2812956646,42922.3121032715
256,cuda,threads,2953309104.5,45063.9206619263
256,opencl,branching,2736175589.5,41750.7261581421
256,opencl,simple,2767389769.5,42227.016746521
256,opencl,threads,2745592398,41894.4152526855
512,cuda,branching,2831899566.5,10802.8395328522
512,cuda,simple,3106580309,11850.6634101868
512,cuda,threads,3349828050.5,12778.5799045563
512,opencl,branching,2768175018.5,10559.7496738434
512,opencl,simple,2823962604.5,10772.5624256134
512,opencl,threads,2849362172,10869.4540863037
1024,cuda,branching,3555354736,3390.65049743652
1024,cuda,simple,3396294088.5,3238.95844316483
1024,cuda,threads,4022345660.5,3836.00774812698
1024,opencl,branching,2951241857.5,2814.52356100082
1024,opencl,simple,3074664383,2932.22845363617
1024,opencl,threads,3193841404,3045.88451766968
2048,cuda,branching,3636946110,867.115523815155
2048,cuda,simple,4268374918.5,1017.65988314152
2048,cuda,threads,6216072914.5,1482.0272718668
2048,opencl,branching,3693425210,880.58119058609
2048,opencl,simple,3729142902,889.096951961517
2048,opencl,threads,4650593875,1108.78798365593
4096,cuda,branching,6114444226,364.449276089668
4096,cuda,simple,6269875841.5,373.713722318411
4096,cuda,threads,12967240622,772.907770991325
4096,opencl,branching,6674089605.5,397.806740134954
4096,opencl,simple,6768192600,403.415715694427
4096,opencl,threads,10034221763.5,598.086223810911
8192,cuda,branching,16700686322.5,248.859618939459
8192,cuda,simple,18300039008,272.691831111908
8192,cuda,threads,38014413155.5,566.458898119628
8192,opencl,branching,16455687947.5,245.208858661354
8192,opencl,simple,17059312389.5,254.203563772142
8192,opencl,threads,32571286610.5,485.349992074072
